On average the probability of a customer at 08:00:00 buying tea, coffee, soda, milkshake, water and frappucino is 12.7 %, 31.6 %, 12.8 %, 14.5%, 14.0 %, 14.5 % and for food 100.0 % nothing.
On average the probability of a customer at 08:05:00 buying tea, coffee, soda, milkshake, water and frappucino is 12.9 %, 34.6 %, 13.0 %, 14.1%, 12.7 %, 12.8 % and for food 100.0 % nothing.
On average the probability of a customer at 08:10:00 buying tea, coffee, soda, milkshake, water and frappucino is 13.5 %, 32.4 %, 13.4 %, 13.9%, 13.9 %, 12.9 % and for food 100.0 % nothing.
On average the probability of a customer at 08:15:00 buying tea, coffee, soda, milkshake, water and frappucino is 14.5 %, 32.4 %, 14.0 %, 12.8%, 13.3 %, 13.2 % and for food 100.0 % nothing.
On average the probability of a customer at 08:20:00 buying tea, coffee, soda, milkshake, water and frappucino is 13.5 %, 33.8 %, 13.1 %, 12.9%, 12.9 %, 13.8 % and for food 100.0 % nothing.
On average the probability of a customer at 08:25:00 buying tea, coffee, soda, milkshake, water and frappucino is 13.2 %, 33.1 %, 13.0 %, 13.4%, 14.0 %, 13.3 % and for food 100.0 % nothing.
On average the probability of a customer at 08:30:00 buying tea, coffee, soda, milkshake, water and frappucino is 11.9 %, 33.4 %, 12.8 %, 13.4%, 14.6 %, 14.0 % and for food 100.0 % nothing.
On average the probability of a customer at 08:35:00 buying tea, coffee, soda, milkshake, water and frappucino is 13.0 %, 31.0 %, 13.9 %, 13.4%, 14.0 %, 14.6 % and for food 100.0 % nothing.
On average the probability of a customer at 08:40:00 buying tea, coffee, soda, milkshake, water and frappucino is 13.4 %, 34.1 %, 14.8 %, 11.6%, 12.7 %, 13.4 % and for food 100.0 % nothing.
On average the probability of a customer at 08:45:00 buying tea, coffee, soda, milkshake, water and frappucino is 13.1 %, 31.6 %, 12.3 %, 14.5%, 14.0 %, 14.5 % and for food 100.0 % nothing.
On average the probability of a customer at 08:50:00 buying tea, coffee, soda, milkshake, water and frappucino is 13.2 %, 32.4 %, 14.5 %, 13.8%, 13.2 %, 13.0 % and for food 100.0 % nothing.
On average the probability of a customer at 08:55:00 buying tea, coffee, soda, milkshake, water and frappucino is 13.3 %, 32.2 %, 14.4 %, 13.2%, 14.0 %, 12.9 % and for food 100.0 % nothing.
On average the probability of a customer at 09:00:00 buying tea, coffee, soda, milkshake, water and frappucino is 14.5 %, 33.8 %, 14.2 %, 12.5%, 12.2 %, 12.9 % and for food 100.0 % nothing.
On average the probability of a customer at 09:05:00 buying tea, coffee, soda, milkshake, water and frappucino is 13.3 %, 31.3 %, 14.9 %, 13.5%, 14.4 %, 12.7 % and for food 100.0 % nothing.
On average the probability of a customer at 09:10:00 buying tea, coffee, soda, milkshake, water and frappucino is 13.3 %, 34.0 %, 12.5 %, 15.0%, 13.4 %, 11.8 % and for food 100.0 % nothing.
On average the probability of a customer at 09:15:00 buying tea, coffee, soda, milkshake, water and frappucino is 13.2 %, 32.2 %, 14.3 %, 13.3%, 13.6 %, 13.4 % and for food 100.0 % nothing.
On average the probability of a customer at 09:20:00 buying tea, coffee, soda, milkshake, water and frappucino is 13.2 %, 33.4 %, 14.2 %, 13.8%, 13.6 %, 11.8 % and for food 100.0 % nothing.
On average the probability of a customer at 09:25:00 buying tea, coffee, soda, milkshake, water and frappucino is 13.5 %, 34.8 %, 12.4 %, 12.7%, 13.5 %, 13.2 % and for food 100.0 % nothing.
On average the probability of a customer at 09:30:00 buying tea, coffee, soda, milkshake, water and frappucino is 12.8 %, 34.8 %, 12.9 %, 14.0%, 13.0 %, 12.4 % and for food 100.0 % nothing.
On average the probability of a customer at 09:35:00 buying tea, coffee, soda, milkshake, water and frappucino is 14.5 %, 33.0 %, 14.0 %, 13.5%, 13.2 %, 11.8 % and for food 100.0 % nothing.
On average the probability of a customer at 09:40:00 buying tea, coffee, soda, milkshake, water and frappucino is 11.8 %, 33.1 %, 13.3 %, 13.4%, 13.9 %, 14.5 % and for food 100.0 % nothing.
On average the probability of a customer at 09:45:00 buying tea, coffee, soda, milkshake, water and frappucino is 12.6 %, 33.3 %, 14.2 %, 12.5%, 12.7 %, 14.7 % and for food 100.0 % nothing.
On average the probability of a customer at 09:50:00 buying tea, coffee, soda, milkshake, water and frappucino is 13.1 %, 32.9 %, 12.9 %, 13.6%, 13.5 %, 14.0 % and for food 100.0 % nothing.
On average the probability of a customer at 09:55:00 buying tea, coffee, soda, milkshake, water and frappucino is 12.9 %, 30.6 %, 14.2 %, 14.9%, 13.5 %, 13.8 % and for food 100.0 % nothing.
On average the probability of a customer at 10:00:00 buying tea, coffee, soda, milkshake, water and frappucino is 12.9 %, 33.5 %, 13.8 %, 13.6%, 13.7 %, 12.5 % and for food 100.0 % nothing.
On average the probability of a customer at 10:05:00 buying tea, coffee, soda, milkshake, water and frappucino is 14.0 %, 31.4 %, 13.6 %, 14.2%, 13.6 %, 13.2 % and for food 100.0 % nothing.
On average the probability of a customer at 10:10:00 buying tea, coffee, soda, milkshake, water and frappucino is 12.5 %, 32.1 %, 14.7 %, 13.1%, 13.4 %, 14.3 % and for food 100.0 % nothing.
On average the probability of a customer at 10:15:00 buying tea, coffee, soda, milkshake, water and frappucino is 14.5 %, 32.9 %, 14.1 %, 12.7%, 12.8 %, 13.1 % and for food 100.0 % nothing.
On average the probability of a customer at 10:20:00 buying tea, coffee, soda, milkshake, water and frappucino is 13.0 %, 32.6 %, 14.7 %, 12.1%, 13.9 %, 13.7 % and for food 100.0 % nothing.
On average the probability of a customer at 10:25:00 buying tea, coffee, soda, milkshake, water and frappucino is 14.6 %, 32.4 %, 14.1 %, 13.5%, 12.9 %, 12.5 % and for food 100.0 % nothing.
On average the probability of a customer at 10:30:00 buying tea, coffee, soda, milkshake, water and frappucino is 13.0 %, 32.4 %, 13.5 %, 12.9%, 14.2 %, 14.0 % and for food 100.0 % nothing.
On average the probability of a customer at 10:35:00 buying tea, coffee, soda, milkshake, water and frappucino is 14.3 %, 32.9 %, 13.5 %, 12.3%, 12.7 %, 14.3 % and for food 100.0 % nothing.
On average the probability of a customer at 10:40:00 buying tea, coffee, soda, milkshake, water and frappucino is 11.6 %, 34.8 %, 13.8 %, 12.4%, 14.6 %, 12.8 % and for food 100.0 % nothing.
On average the probability of a customer at 10:45:00 buying tea, coffee, soda, milkshake, water and frappucino is 13.4 %, 31.5 %, 14.0 %, 14.6%, 13.5 %, 13.0 % and for food 100.0 % nothing.
On average the probability of a customer at 10:50:00 buying tea, coffee, soda, milkshake, water and frappucino is 12.8 %, 33.2 %, 13.0 %, 13.4%, 13.4 %, 14.2 % and for food 100.0 % nothing.
On average the probability of a customer at 10:55:00 buying tea, coffee, soda, milkshake, water and frappucino is 13.6 %, 32.8 %, 14.8 %, 12.3%, 12.8 %, 13.7 % and for food 100.0 % nothing.
On average the probability of a customer at 11:00:00 buying tea, coffee, soda, milkshake, water and frappucino is 8.4 %, 8.4 %, 57.6 %, 10.1%, 8.1 %, 7.3 % and for food 12.7 % cookie, 13.8 % muffin, 12.0 % pie, 61.5 % sandwich.
On average the probability of a customer at 11:02:00 buying tea, coffee, soda, milkshake, water and frappucino is 9.4 %, 8.6 %, 58.1 %, 8.3%, 8.3 %, 7.4 % and for food 10.8 % cookie, 12.4 % muffin, 13.0 % pie, 63.7 % sandwich.
On average the probability of a customer at 11:04:00 buying tea, coffee, soda, milkshake, water and frappucino is 7.8 %, 7.9 %, 57.3 %, 8.2%, 9.9 %, 8.9 % and for food 11.7 % cookie, 12.4 % muffin, 13.3 % pie, 62.6 % sandwich.
On average the probability of a customer at 11:06:00 buying tea, coffee, soda, milkshake, water and frappucino is 9.3 %, 7.8 %, 58.0 %, 7.8%, 8.4 %, 8.6 % and for food 12.7 % cookie, 13.6 % muffin, 11.6 % pie, 62.2 % sandwich.
On average the probability of a customer at 11:08:00 buying tea, coffee, soda, milkshake, water and frappucino is 7.5 %, 9.2 %, 58.0 %, 8.9%, 7.5 %, 9.0 % and for food 12.6 % cookie, 12.2 % muffin, 13.3 % pie, 62.0 % sandwich.
On average the probability of a customer at 11:10:00 buying tea, coffee, soda, milkshake, water and frappucino is 8.3 %, 8.2 %, 58.2 %, 7.7%, 9.4 %, 8.2 % and for food 11.8 % cookie, 11.2 % muffin, 12.7 % pie, 64.2 % sandwich.
On average the probability of a customer at 11:12:00 buying tea, coffee, soda, milkshake, water and frappucino is 7.2 %, 10.2 %, 57.9 %, 8.4%, 8.3 %, 7.9 % and for food 12.7 % cookie, 11.6 % muffin, 12.4 % pie, 63.3 % sandwich.
On average the probability of a customer at 11:14:00 buying tea, coffee, soda, milkshake, water and frappucino is 8.4 %, 7.8 %, 56.4 %, 9.3%, 8.3 %, 9.7 % and for food 12.9 % cookie, 13.2 % muffin, 12.8 % pie, 61.2 % sandwich.
On average the probability of a customer at 11:16:00 buying tea, coffee, soda, milkshake, water and frappucino is 8.3 %, 8.1 %, 60.7 %, 7.5%, 7.5 %, 7.9 % and for food 12.2 % cookie, 12.0 % muffin, 12.2 % pie, 63.6 % sandwich.
On average the probability of a customer at 11:18:00 buying tea, coffee, soda, milkshake, water and frappucino is 8.9 %, 7.8 %, 57.4 %, 9.4%, 8.3 %, 8.2 % and for food 13.0 % cookie, 10.9 % muffin, 12.9 % pie, 63.1 % sandwich.
On average the probability of a customer at 11:20:00 buying tea, coffee, soda, milkshake, water and frappucino is 8.6 %, 8.7 %, 57.3 %, 9.1%, 8.3 %, 8.1 % and for food 12.3 % cookie, 13.5 % muffin, 13.5 % pie, 60.7 % sandwich.
On average the probability of a customer at 11:22:00 buying tea, coffee, soda, milkshake, water and frappucino is 8.2 %, 8.9 %, 58.0 %, 8.6%, 8.1 %, 8.2 % and for food 13.2 % cookie, 11.2 % muffin, 13.3 % pie, 62.4 % sandwich.
On average the probability of a customer at 11:24:00 buying tea, coffee, soda, milkshake, water and frappucino is 7.5 %, 8.1 %, 58.2 %, 8.1%, 8.6 %, 9.5 % and for food 12.3 % cookie, 13.3 % muffin, 11.6 % pie, 62.8 % sandwich.
On average the probability of a customer at 11:26:00 buying tea, coffee, soda, milkshake, water and frappucino is 7.2 %, 7.9 %, 57.1 %, 10.2%, 8.9 %, 8.6 % and for food 12.4 % cookie, 13.1 % muffin, 13.2 % pie, 61.3 % sandwich.
On average the probability of a customer at 11:28:00 buying tea, coffee, soda, milkshake, water and frappucino is 7.2 %, 9.5 %, 58.9 %, 8.5%, 8.7 %, 7.2 % and for food 11.7 % cookie, 13.4 % muffin, 11.9 % pie, 63.0 % sandwich.
On average the probability of a customer at 11:30:00 buying tea, coffee, soda, milkshake, water and frappucino is 8.5 %, 8.3 %, 59.3 %, 8.5%, 8.6 %, 6.8 % and for food 11.4 % cookie, 12.3 % muffin, 12.9 % pie, 63.5 % sandwich.
On average the probability of a customer at 11:32:00 buying tea, coffee, soda, milkshake, water and frappucino is 7.8 %, 8.9 %, 59.0 %, 7.1%, 8.3 %, 8.9 % and for food 12.8 % cookie, 10.6 % muffin, 12.6 % pie, 63.9 % sandwich.
On average the probability of a customer at 11:34:00 buying tea, coffee, soda, milkshake, water and frappucino is 8.2 %, 8.4 %, 58.5 %, 8.3%, 7.9 %, 8.7 % and for food 11.9 % cookie, 13.0 % muffin, 12.2 % pie, 62.9 % sandwich.
On average the probability of a customer at 11:36:00 buying tea, coffee, soda, milkshake, water and frappucino is 7.0 %, 7.6 %, 61.2 %, 8.1%, 8.5 %, 7.7 % and for food 11.3 % cookie, 12.3 % muffin, 12.3 % pie, 64.2 % sandwich.
On average the probability of a customer at 11:38:00 buying tea, coffee, soda, milkshake, water and frappucino is 7.4 %, 8.4 %, 59.5 %, 8.5%, 8.3 %, 7.8 % and for food 12.8 % cookie, 11.3 % muffin, 12.4 % pie, 63.5 % sandwich.
On average the probability of a customer at 11:40:00 buying tea, coffee, soda, milkshake, water and frappucino is 9.2 %, 8.5 %, 58.3 %, 8.1%, 7.6 %, 8.3 % and for food 12.1 % cookie, 11.9 % muffin, 12.8 % pie, 63.2 % sandwich.
On average the probability of a customer at 11:42:00 buying tea, coffee, soda, milkshake, water and frappucino is 7.9 %, 7.8 %, 59.7 %, 8.2%, 8.1 %, 8.2 % and for food 11.1 % cookie, 11.9 % muffin, 13.2 % pie, 63.8 % sandwich.
On average the probability of a customer at 11:44:00 buying tea, coffee, soda, milkshake, water and frappucino is 8.1 %, 9.0 %, 57.0 %, 8.7%, 9.7 %, 7.5 % and for food 14.5 % cookie, 12.8 % muffin, 11.5 % pie, 61.3 % sandwich.
On average the probability of a customer at 11:46:00 buying tea, coffee, soda, milkshake, water and frappucino is 8.7 %, 7.8 %, 59.7 %, 9.5%, 7.7 %, 6.7 % and for food 12.4 % cookie, 12.7 % muffin, 11.0 % pie, 63.9 % sandwich.
On average the probability of a customer at 11:48:00 buying tea, coffee, soda, milkshake, water and frappucino is 8.6 %, 9.7 %, 56.3 %, 7.7%, 8.9 %, 8.7 % and for food 12.8 % cookie, 14.0 % muffin, 12.0 % pie, 61.2 % sandwich.
On average the probability of a customer at 11:50:00 buying tea, coffee, soda, milkshake, water and frappucino is 8.8 %, 7.5 %, 58.8 %, 8.1%, 8.4 %, 8.4 % and for food 11.8 % cookie, 13.1 % muffin, 13.4 % pie, 61.7 % sandwich.
On average the probability of a customer at 11:52:00 buying tea, coffee, soda, milkshake, water and frappucino is 8.3 %, 8.8 %, 58.8 %, 7.8%, 8.4 %, 7.8 % and for food 11.6 % cookie, 12.5 % muffin, 12.3 % pie, 63.6 % sandwich.
On average the probability of a customer at 11:54:00 buying tea, coffee, soda, milkshake, water and frappucino is 6.5 %, 8.0 %, 60.4 %, 9.4%, 7.2 %, 8.5 % and for food 11.3 % cookie, 13.3 % muffin, 11.0 % pie, 64.4 % sandwich.
On average the probability of a customer at 11:56:00 buying tea, coffee, soda, milkshake, water and frappucino is 7.7 %, 7.7 %, 59.8 %, 8.1%, 8.4 %, 8.3 % and for food 12.4 % cookie, 11.2 % muffin, 12.2 % pie, 64.3 % sandwich.
On average the probability of a customer at 11:58:00 buying tea, coffee, soda, milkshake, water and frappucino is 7.5 %, 8.7 %, 59.0 %, 8.6%, 8.7 %, 7.5 % and for food 12.1 % cookie, 11.7 % muffin, 13.4 % pie, 62.8 % sandwich.
On average the probability of a customer at 12:00:00 buying tea, coffee, soda, milkshake, water and frappucino is 8.7 %, 8.7 %, 58.4 %, 8.2%, 8.2 %, 7.8 % and for food 12.7 % cookie, 10.4 % muffin, 12.5 % pie, 64.5 % sandwich.
On average the probability of a customer at 12:02:00 buying tea, coffee, soda, milkshake, water and frappucino is 9.1 %, 7.7 %, 57.2 %, 9.0%, 8.7 %, 8.4 % and for food 13.3 % cookie, 11.9 % muffin, 12.9 % pie, 61.9 % sandwich.
On average the probability of a customer at 12:04:00 buying tea, coffee, soda, milkshake, water and frappucino is 8.2 %, 8.3 %, 57.8 %, 8.4%, 8.4 %, 8.8 % and for food 11.8 % cookie, 12.3 % muffin, 11.9 % pie, 63.9 % sandwich.
On average the probability of a customer at 12:06:00 buying tea, coffee, soda, milkshake, water and frappucino is 8.7 %, 8.8 %, 58.6 %, 7.9%, 7.8 %, 8.2 % and for food 13.7 % cookie, 11.9 % muffin, 11.6 % pie, 62.8 % sandwich.
On average the probability of a customer at 12:08:00 buying tea, coffee, soda, milkshake, water and frappucino is 8.3 %, 8.0 %, 58.2 %, 8.0%, 8.2 %, 9.3 % and for food 12.3 % cookie, 12.9 % muffin, 11.9 % pie, 62.9 % sandwich.
On average the probability of a customer at 12:10:00 buying tea, coffee, soda, milkshake, water and frappucino is 9.1 %, 8.3 %, 57.0 %, 9.4%, 8.8 %, 7.3 % and for food 12.5 % cookie, 12.5 % muffin, 13.0 % pie, 61.9 % sandwich.
On average the probability of a customer at 12:12:00 buying tea, coffee, soda, milkshake, water and frappucino is 9.0 %, 8.3 %, 58.0 %, 8.2%, 8.5 %, 7.9 % and for food 12.0 % cookie, 12.2 % muffin, 13.4 % pie, 62.4 % sandwich.
On average the probability of a customer at 12:14:00 buying tea, coffee, soda, milkshake, water and frappucino is 7.6 %, 7.6 %, 59.4 %, 7.9%, 9.2 %, 8.3 % and for food 11.9 % cookie, 12.8 % muffin, 11.1 % pie, 64.2 % sandwich.
On average the probability of a customer at 12:16:00 buying tea, coffee, soda, milkshake, water and frappucino is 8.4 %, 7.8 %, 56.5 %, 8.9%, 9.5 %, 8.9 % and for food 13.4 % cookie, 12.5 % muffin, 12.8 % pie, 61.3 % sandwich.
On average the probability of a customer at 12:18:00 buying tea, coffee, soda, milkshake, water and frappucino is 8.3 %, 9.2 %, 58.2 %, 9.0%, 7.9 %, 7.3 % and for food 12.4 % cookie, 12.7 % muffin, 13.3 % pie, 61.6 % sandwich.
On average the probability of a customer at 12:20:00 buying tea, coffee, soda, milkshake, water and frappucino is 7.5 %, 9.4 %, 58.8 %, 8.6%, 7.8 %, 7.9 % and for food 12.4 % cookie, 13.1 % muffin, 11.5 % pie, 63.1 % sandwich.
On average the probability of a customer at 12:22:00 buying tea, coffee, soda, milkshake, water and frappucino is 8.5 %, 9.0 %, 59.0 %, 8.8%, 7.5 %, 7.2 % and for food 12.1 % cookie, 13.2 % muffin, 12.4 % pie, 62.4 % sandwich.
On average the probability of a customer at 12:24:00 buying tea, coffee, soda, milkshake, water and frappucino is 8.2 %, 8.1 %, 57.8 %, 9.2%, 8.4 %, 8.2 % and for food 12.9 % cookie, 12.4 % muffin, 12.1 % pie, 62.6 % sandwich.
On average the probability of a customer at 12:26:00 buying tea, coffee, soda, milkshake, water and frappucino is 8.4 %, 8.3 %, 55.8 %, 8.4%, 9.7 %, 9.3 % and for food 13.4 % cookie, 13.3 % muffin, 13.3 % pie, 60.0 % sandwich.
On average the probability of a customer at 12:28:00 buying tea, coffee, soda, milkshake, water and frappucino is 7.1 %, 8.4 %, 58.8 %, 8.7%, 8.9 %, 8.0 % and for food 11.5 % cookie, 12.5 % muffin, 12.2 % pie, 63.8 % sandwich.
On average the probability of a customer at 12:30:00 buying tea, coffee, soda, milkshake, water and frappucino is 8.5 %, 7.8 %, 58.5 %, 8.5%, 7.0 %, 9.7 % and for food 12.3 % cookie, 12.7 % muffin, 12.9 % pie, 62.1 % sandwich.
On average the probability of a customer at 12:32:00 buying tea, coffee, soda, milkshake, water and frappucino is 8.7 %, 9.0 %, 58.7 %, 7.9%, 7.3 %, 8.3 % and for food 12.8 % cookie, 11.7 % muffin, 12.1 % pie, 63.5 % sandwich.
On average the probability of a customer at 12:34:00 buying tea, coffee, soda, milkshake, water and frappucino is 9.2 %, 8.5 %, 56.2 %, 9.3%, 8.3 %, 8.5 % and for food 14.6 % cookie, 12.9 % muffin, 12.3 % pie, 60.2 % sandwich.
On average the probability of a customer at 12:36:00 buying tea, coffee, soda, milkshake, water and frappucino is 7.9 %, 8.3 %, 58.1 %, 8.3%, 9.0 %, 8.2 % and for food 12.7 % cookie, 12.3 % muffin, 13.0 % pie, 62.0 % sandwich.
On average the probability of a customer at 12:38:00 buying tea, coffee, soda, milkshake, water and frappucino is 9.6 %, 7.8 %, 58.8 %, 8.8%, 7.1 %, 7.8 % and for food 12.5 % cookie, 12.1 % muffin, 13.0 % pie, 62.5 % sandwich.
On average the probability of a customer at 12:40:00 buying tea, coffee, soda, milkshake, water and frappucino is 8.3 %, 8.6 %, 60.0 %, 7.9%, 6.7 %, 8.4 % and for food 11.5 % cookie, 11.2 % muffin, 12.8 % pie, 64.5 % sandwich.
On average the probability of a customer at 12:42:00 buying tea, coffee, soda, milkshake, water and frappucino is 8.3 %, 7.2 %, 59.7 %, 6.8%, 8.8 %, 9.2 % and for food 12.2 % cookie, 13.3 % muffin, 12.1 % pie, 62.5 % sandwich.
On average the probability of a customer at 12:44:00 buying tea, coffee, soda, milkshake, water and frappucino is 8.1 %, 8.1 %, 59.8 %, 7.8%, 8.3 %, 7.8 % and for food 13.5 % cookie, 12.0 % muffin, 12.8 % pie, 61.8 % sandwich.
On average the probability of a customer at 12:46:00 buying tea, coffee, soda, milkshake, water and frappucino is 8.3 %, 9.0 %, 59.6 %, 7.1%, 6.7 %, 9.2 % and for food 11.8 % cookie, 12.4 % muffin, 12.8 % pie, 63.0 % sandwich.
On average the probability of a customer at 12:48:00 buying tea, coffee, soda, milkshake, water and frappucino is 8.9 %, 8.7 %, 56.4 %, 8.2%, 8.7 %, 9.2 % and for food 12.5 % cookie, 13.3 % muffin, 12.9 % pie, 61.2 % sandwich.
On average the probability of a customer at 12:50:00 buying tea, coffee, soda, milkshake, water and frappucino is 8.1 %, 7.8 %, 58.3 %, 8.4%, 8.5 %, 8.9 % and for food 11.9 % cookie, 12.2 % muffin, 12.8 % pie, 63.1 % sandwich.
On average the probability of a customer at 12:52:00 buying tea, coffee, soda, milkshake, water and frappucino is 9.4 %, 9.2 %, 57.1 %, 7.7%, 8.8 %, 7.8 % and for food 13.7 % cookie, 12.4 % muffin, 13.0 % pie, 60.9 % sandwich.
On average the probability of a customer at 12:54:00 buying tea, coffee, soda, milkshake, water and frappucino is 8.7 %, 8.1 %, 59.3 %, 7.9%, 8.0 %, 8.0 % and for food 13.7 % cookie, 12.9 % muffin, 11.6 % pie, 61.8 % sandwich.
On average the probability of a customer at 12:56:00 buying tea, coffee, soda, milkshake, water and frappucino is 8.1 %, 8.6 %, 59.1 %, 8.7%, 7.5 %, 8.1 % and for food 12.8 % cookie, 11.6 % muffin, 11.8 % pie, 63.7 % sandwich.
On average the probability of a customer at 12:58:00 buying tea, coffee, soda, milkshake, water and frappucino is 9.2 %, 8.4 %, 57.9 %, 8.1%, 8.2 %, 8.3 % and for food 14.0 % cookie, 11.3 % muffin, 12.2 % pie, 62.5 % sandwich.
On average the probability of a customer at 13:00:00 buying tea, coffee, soda, milkshake, water and frappucino is 17.0 %, 17.8 %, 16.2 %, 18.1%, 14.8 %, 16.2 % and for food 13.8 % cookie, 12.8 % muffin, 60.5 % nothing, 12.9 % pie.
On average the probability of a customer at 13:04:00 buying tea, coffee, soda, milkshake, water and frappucino is 18.0 %, 14.6 %, 17.2 %, 16.0%, 16.6 %, 17.5 % and for food 13.3 % cookie, 13.3 % muffin, 59.8 % nothing, 13.7 % pie.
On average the probability of a customer at 13:08:00 buying tea, coffee, soda, milkshake, water and frappucino is 17.1 %, 16.9 %, 15.3 %, 16.3%, 18.4 %, 16.1 % and for food 12.5 % cookie, 13.4 % muffin, 60.4 % nothing, 13.6 % pie.
On average the probability of a customer at 13:12:00 buying tea, coffee, soda, milkshake, water and frappucino is 16.2 %, 18.5 %, 16.9 %, 15.8%, 16.5 %, 16.0 % and for food 12.7 % cookie, 12.3 % muffin, 60.8 % nothing, 14.2 % pie.
On average the probability of a customer at 13:16:00 buying tea, coffee, soda, milkshake, water and frappucino is 16.7 %, 16.3 %, 13.9 %, 18.5%, 17.5 %, 17.1 % and for food 13.4 % cookie, 13.6 % muffin, 58.5 % nothing, 14.5 % pie.
On average the probability of a customer at 13:20:00 buying tea, coffee, soda, milkshake, water and frappucino is 15.9 %, 17.9 %, 18.5 %, 16.7%, 16.3 %, 14.6 % and for food 13.4 % cookie, 13.5 % muffin, 58.2 % nothing, 14.9 % pie.
On average the probability of a customer at 13:24:00 buying tea, coffee, soda, milkshake, water and frappucino is 17.0 %, 15.9 %, 16.6 %, 15.9%, 17.6 %, 16.9 % and for food 13.9 % cookie, 12.6 % muffin, 60.9 % nothing, 12.6 % pie.
On average the probability of a customer at 13:28:00 buying tea, coffee, soda, milkshake, water and frappucino is 15.6 %, 16.3 %, 17.9 %, 16.7%, 16.5 %, 17.0 % and for food 13.4 % cookie, 13.4 % muffin, 58.9 % nothing, 14.3 % pie.
On average the probability of a customer at 13:32:00 buying tea, coffee, soda, milkshake, water and frappucino is 17.8 %, 15.1 %, 18.1 %, 16.7%, 16.2 %, 16.1 % and for food 14.4 % cookie, 15.5 % muffin, 57.9 % nothing, 12.2 % pie.
On average the probability of a customer at 13:36:00 buying tea, coffee, soda, milkshake, water and frappucino is 16.1 %, 17.3 %, 17.8 %, 14.5%, 16.8 %, 17.6 % and for food 12.9 % cookie, 13.2 % muffin, 59.4 % nothing, 14.5 % pie.
On average the probability of a customer at 13:40:00 buying tea, coffee, soda, milkshake, water and frappucino is 18.3 %, 16.4 %, 16.9 %, 16.6%, 16.0 %, 15.7 % and for food 13.9 % cookie, 13.5 % muffin, 58.5 % nothing, 14.1 % pie.
On average the probability of a customer at 13:44:00 buying tea, coffee, soda, milkshake, water and frappucino is 17.0 %, 15.7 %, 16.8 %, 15.6%, 18.1 %, 16.7 % and for food 12.8 % cookie, 13.4 % muffin, 61.4 % nothing, 12.4 % pie.
On average the probability of a customer at 13:48:00 buying tea, coffee, soda, milkshake, water and frappucino is 16.2 %, 16.5 %, 16.5 %, 17.5%, 17.7 %, 15.6 % and for food 13.7 % cookie, 12.1 % muffin, 61.4 % nothing, 12.8 % pie.
On average the probability of a customer at 13:52:00 buying tea, coffee, soda, milkshake, water and frappucino is 16.3 %, 17.3 %, 17.1 %, 16.9%, 16.4 %, 16.1 % and for food 13.9 % cookie, 12.8 % muffin, 59.2 % nothing, 14.2 % pie.
On average the probability of a customer at 13:56:00 buying tea, coffee, soda, milkshake, water and frappucino is 15.7 %, 16.5 %, 17.9 %, 16.5%, 15.7 %, 17.8 % and for food 14.0 % cookie, 13.4 % muffin, 59.8 % nothing, 12.8 % pie.
On average the probability of a customer at 14:00:00 buying tea, coffee, soda, milkshake, water and frappucino is 17.6 %, 17.5 %, 16.9 %, 15.0%, 17.0 %, 16.0 % and for food 13.3 % cookie, 13.0 % muffin, 60.5 % nothing, 13.2 % pie.
On average the probability of a customer at 14:04:00 buying tea, coffee, soda, milkshake, water and frappucino is 16.5 %, 16.7 %, 18.6 %, 16.0%, 16.9 %, 15.3 % and for food 13.5 % cookie, 14.5 % muffin, 59.8 % nothing, 12.2 % pie.
On average the probability of a customer at 14:08:00 buying tea, coffee, soda, milkshake, water and frappucino is 17.6 %, 15.2 %, 15.7 %, 17.3%, 16.8 %, 17.4 % and for food 13.2 % cookie, 11.8 % muffin, 60.9 % nothing, 14.0 % pie.
On average the probability of a customer at 14:12:00 buying tea, coffee, soda, milkshake, water and frappucino is 17.4 %, 16.4 %, 17.0 %, 16.2%, 16.8 %, 16.2 % and for food 13.8 % cookie, 14.1 % muffin, 58.9 % nothing, 13.2 % pie.
On average the probability of a customer at 14:16:00 buying tea, coffee, soda, milkshake, water and frappucino is 17.3 %, 16.5 %, 15.6 %, 17.4%, 16.2 %, 17.0 % and for food 13.7 % cookie, 12.1 % muffin, 59.4 % nothing, 14.8 % pie.
On average the probability of a customer at 14:20:00 buying tea, coffee, soda, milkshake, water and frappucino is 16.4 %, 17.7 %, 16.2 %, 18.1%, 15.7 %, 15.8 % and for food 12.7 % cookie, 12.9 % muffin, 59.4 % nothing, 15.0 % pie.
On average the probability of a customer at 14:24:00 buying tea, coffee, soda, milkshake, water and frappucino is 15.2 %, 17.2 %, 16.6 %, 17.5%, 16.9 %, 16.5 % and for food 11.3 % cookie, 13.1 % muffin, 61.9 % nothing, 13.6 % pie.
On average the probability of a customer at 14:28:00 buying tea, coffee, soda, milkshake, water and frappucino is 16.3 %, 16.9 %, 17.0 %, 15.8%, 17.3 %, 16.7 % and for food 12.9 % cookie, 13.4 % muffin, 61.0 % nothing, 12.7 % pie.
On average the probability of a customer at 14:32:00 buying tea, coffee, soda, milkshake, water and frappucino is 16.3 %, 16.3 %, 15.5 %, 17.4%, 17.4 %, 17.0 % and for food 12.0 % cookie, 14.1 % muffin, 60.4 % nothing, 13.5 % pie.
On average the probability of a customer at 14:36:00 buying tea, coffee, soda, milkshake, water and frappucino is 17.3 %, 16.7 %, 17.1 %, 15.7%, 17.9 %, 15.3 % and for food 13.6 % cookie, 12.7 % muffin, 61.1 % nothing, 12.5 % pie.
On average the probability of a customer at 14:40:00 buying tea, coffee, soda, milkshake, water and frappucino is 16.5 %, 17.1 %, 15.9 %, 16.1%, 17.7 %, 16.7 % and for food 12.3 % cookie, 13.3 % muffin, 60.9 % nothing, 13.5 % pie.
On average the probability of a customer at 14:44:00 buying tea, coffee, soda, milkshake, water and frappucino is 17.4 %, 18.2 %, 14.5 %, 16.3%, 16.4 %, 17.2 % and for food 12.8 % cookie, 14.2 % muffin, 59.9 % nothing, 13.0 % pie.
On average the probability of a customer at 14:48:00 buying tea, coffee, soda, milkshake, water and frappucino is 16.2 %, 15.2 %, 16.0 %, 17.4%, 17.1 %, 18.0 % and for food 13.0 % cookie, 14.5 % muffin, 59.0 % nothing, 13.5 % pie.
On average the probability of a customer at 14:52:00 buying tea, coffee, soda, milkshake, water and frappucino is 16.6 %, 17.8 %, 15.7 %, 18.2%, 15.4 %, 16.3 % and for food 13.6 % cookie, 11.0 % muffin, 61.8 % nothing, 13.6 % pie.
On average the probability of a customer at 14:56:00 buying tea, coffee, soda, milkshake, water and frappucino is 14.5 %, 16.3 %, 17.0 %, 17.3%, 19.4 %, 15.4 % and for food 14.0 % cookie, 13.5 % muffin, 59.8 % nothing, 12.7 % pie.
On average the probability of a customer at 15:00:00 buying tea, coffee, soda, milkshake, water and frappucino is 16.3 %, 17.8 %, 17.3 %, 16.5%, 17.4 %, 14.8 % and for food 12.2 % cookie, 13.4 % muffin, 61.0 % nothing, 13.4 % pie.
On average the probability of a customer at 15:04:00 buying tea, coffee, soda, milkshake, water and frappucino is 15.6 %, 16.2 %, 18.4 %, 16.8%, 16.9 %, 16.1 % and for food 12.8 % cookie, 12.9 % muffin, 61.0 % nothing, 13.3 % pie.
On average the probability of a customer at 15:08:00 buying tea, coffee, soda, milkshake, water and frappucino is 16.7 %, 18.5 %, 16.4 %, 15.4%, 16.2 %, 16.8 % and for food 13.6 % cookie, 11.7 % muffin, 61.6 % nothing, 13.0 % pie.
On average the probability of a customer at 15:12:00 buying tea, coffee, soda, milkshake, water and frappucino is 16.8 %, 16.2 %, 16.2 %, 17.4%, 16.4 %, 16.9 % and for food 13.5 % cookie, 13.3 % muffin, 59.5 % nothing, 13.8 % pie.
On average the probability of a customer at 15:16:00 buying tea, coffee, soda, milkshake, water and frappucino is 15.9 %, 18.0 %, 16.3 %, 17.0%, 16.3 %, 16.5 % and for food 13.3 % cookie, 13.1 % muffin, 59.8 % nothing, 13.8 % pie.
On average the probability of a customer at 15:20:00 buying tea, coffee, soda, milkshake, water and frappucino is 15.6 %, 17.9 %, 16.8 %, 18.4%, 14.8 %, 16.6 % and for food 14.2 % cookie, 14.5 % muffin, 57.9 % nothing, 13.5 % pie.
On average the probability of a customer at 15:24:00 buying tea, coffee, soda, milkshake, water and frappucino is 15.2 %, 17.6 %, 16.9 %, 15.9%, 16.9 %, 17.5 % and for food 13.9 % cookie, 13.4 % muffin, 59.7 % nothing, 13.1 % pie.
On average the probability of a customer at 15:28:00 buying tea, coffee, soda, milkshake, water and frappucino is 17.5 %, 19.0 %, 15.1 %, 15.2%, 16.2 %, 17.0 % and for food 13.5 % cookie, 12.7 % muffin, 59.7 % nothing, 14.1 % pie.
On average the probability of a customer at 15:32:00 buying tea, coffee, soda, milkshake, water and frappucino is 17.0 %, 16.2 %, 16.7 %, 16.7%, 17.6 %, 15.8 % and for food 12.1 % cookie, 14.2 % muffin, 60.1 % nothing, 13.6 % pie.
On average the probability of a customer at 15:36:00 buying tea, coffee, soda, milkshake, water and frappucino is 16.4 %, 16.9 %, 16.9 %, 15.0%, 16.3 %, 18.5 % and for food 13.1 % cookie, 13.2 % muffin, 60.8 % nothing, 12.9 % pie.
On average the probability of a customer at 15:40:00 buying tea, coffee, soda, milkshake, water and frappucino is 17.4 %, 17.9 %, 16.2 %, 15.2%, 16.6 %, 16.7 % and for food 14.7 % cookie, 12.4 % muffin, 59.7 % nothing, 13.2 % pie.
On average the probability of a customer at 15:44:00 buying tea, coffee, soda, milkshake, water and frappucino is 15.3 %, 17.2 %, 16.2 %, 16.2%, 18.6 %, 16.7 % and for food 13.0 % cookie, 13.5 % muffin, 59.2 % nothing, 14.4 % pie.
On average the probability of a customer at 15:48:00 buying tea, coffee, soda, milkshake, water and frappucino is 15.9 %, 16.8 %, 16.4 %, 17.5%, 16.2 %, 17.2 % and for food 12.6 % cookie, 13.4 % muffin, 61.6 % nothing, 12.4 % pie.
On average the probability of a customer at 15:52:00 buying tea, coffee, soda, milkshake, water and frappucino is 16.8 %, 16.4 %, 16.2 %, 16.7%, 18.8 %, 15.1 % and for food 13.7 % cookie, 15.1 % muffin, 57.9 % nothing, 13.3 % pie.
On average the probability of a customer at 15:56:00 buying tea, coffee, soda, milkshake, water and frappucino is 15.7 %, 17.2 %, 18.5 %, 15.5%, 16.1 %, 17.0 % and for food 12.2 % cookie, 14.4 % muffin, 59.1 % nothing, 14.3 % pie.
On average the probability of a customer at 16:00:00 buying tea, coffee, soda, milkshake, water and frappucino is 17.3 %, 15.9 %, 16.6 %, 16.0%, 17.2 %, 17.0 % and for food 13.0 % cookie, 12.6 % muffin, 62.2 % nothing, 12.2 % pie.
On average the probability of a customer at 16:04:00 buying tea, coffee, soda, milkshake, water and frappucino is 16.5 %, 16.7 %, 16.6 %, 16.7%, 16.9 %, 16.5 % and for food 13.0 % cookie, 13.3 % muffin, 61.3 % nothing, 12.4 % pie.
On average the probability of a customer at 16:08:00 buying tea, coffee, soda, milkshake, water and frappucino is 16.0 %, 17.4 %, 16.6 %, 16.4%, 17.7 %, 15.8 % and for food 12.2 % cookie, 14.0 % muffin, 60.3 % nothing, 13.5 % pie.
On average the probability of a customer at 16:12:00 buying tea, coffee, soda, milkshake, water and frappucino is 16.1 %, 17.5 %, 17.2 %, 16.0%, 15.7 %, 17.6 % and for food 12.6 % cookie, 13.1 % muffin, 60.8 % nothing, 13.5 % pie.
On average the probability of a customer at 16:16:00 buying tea, coffee, soda, milkshake, water and frappucino is 16.5 %, 17.8 %, 15.6 %, 18.4%, 15.7 %, 16.1 % and for food 13.8 % cookie, 13.2 % muffin, 59.3 % nothing, 13.8 % pie.
On average the probability of a customer at 16:20:00 buying tea, coffee, soda, milkshake, water and frappucino is 17.5 %, 14.5 %, 17.0 %, 16.8%, 17.0 %, 17.2 % and for food 12.9 % cookie, 14.0 % muffin, 59.7 % nothing, 13.4 % pie.
On average the probability of a customer at 16:24:00 buying tea, coffee, soda, milkshake, water and frappucino is 16.0 %, 18.5 %, 16.8 %, 15.8%, 17.0 %, 15.9 % and for food 14.4 % cookie, 13.1 % muffin, 58.7 % nothing, 13.9 % pie.
On average the probability of a customer at 16:28:00 buying tea, coffee, soda, milkshake, water and frappucino is 17.8 %, 18.2 %, 15.5 %, 16.4%, 16.5 %, 15.5 % and for food 13.5 % cookie, 12.8 % muffin, 59.0 % nothing, 14.7 % pie.
On average the probability of a customer at 16:32:00 buying tea, coffee, soda, milkshake, water and frappucino is 17.3 %, 17.3 %, 17.4 %, 15.7%, 16.4 %, 15.9 % and for food 13.3 % cookie, 13.4 % muffin, 59.7 % nothing, 13.6 % pie.
On average the probability of a customer at 16:36:00 buying tea, coffee, soda, milkshake, water and frappucino is 17.8 %, 16.2 %, 14.5 %, 15.9%, 18.0 %, 17.6 % and for food 13.0 % cookie, 12.9 % muffin, 60.9 % nothing, 13.2 % pie.
On average the probability of a customer at 16:40:00 buying tea, coffee, soda, milkshake, water and frappucino is 17.0 %, 17.0 %, 16.2 %, 17.1%, 16.0 %, 16.7 % and for food 13.2 % cookie, 14.8 % muffin, 58.2 % nothing, 13.8 % pie.
On average the probability of a customer at 16:44:00 buying tea, coffee, soda, milkshake, water and frappucino is 16.5 %, 15.6 %, 16.3 %, 16.9%, 18.6 %, 16.1 % and for food 13.5 % cookie, 13.2 % muffin, 60.4 % nothing, 12.9 % pie.
On average the probability of a customer at 16:48:00 buying tea, coffee, soda, milkshake, water and frappucino is 18.0 %, 16.5 %, 15.7 %, 18.8%, 17.0 %, 14.0 % and for food 12.5 % cookie, 12.9 % muffin, 61.2 % nothing, 13.4 % pie.
On average the probability of a customer at 16:52:00 buying tea, coffee, soda, milkshake, water and frappucino is 16.5 %, 16.5 %, 16.7 %, 15.7%, 18.1 %, 16.4 % and for food 14.4 % cookie, 13.3 % muffin, 58.4 % nothing, 13.9 % pie.
On average the probability of a customer at 16:56:00 buying tea, coffee, soda, milkshake, water and frappucino is 16.0 %, 17.9 %, 16.4 %, 16.9%, 16.1 %, 16.7 % and for food 14.0 % cookie, 12.7 % muffin, 60.4 % nothing, 12.9 % pie.
On average the probability of a customer at 17:00:00 buying tea, coffee, soda, milkshake, water and frappucino is 16.8 %, 18.2 %, 16.9 %, 15.3%, 17.3 %, 15.5 % and for food 12.8 % cookie, 13.5 % muffin, 59.6 % nothing, 14.1 % pie.
On average the probability of a customer at 17:04:00 buying tea, coffee, soda, milkshake, water and frappucino is 16.5 %, 17.0 %, 15.2 %, 16.8%, 18.5 %, 16.1 % and for food 14.7 % cookie, 12.6 % muffin, 59.1 % nothing, 13.5 % pie.
On average the probability of a customer at 17:08:00 buying tea, coffee, soda, milkshake, water and frappucino is 16.8 %, 15.1 %, 16.5 %, 17.5%, 17.4 %, 16.6 % and for food 14.0 % cookie, 13.6 % muffin, 60.2 % nothing, 12.2 % pie.
On average the probability of a customer at 17:12:00 buying tea, coffee, soda, milkshake, water and frappucino is 17.0 %, 17.6 %, 15.3 %, 16.8%, 16.7 %, 16.6 % and for food 13.2 % cookie, 12.1 % muffin, 61.2 % nothing, 13.5 % pie.
On average the probability of a customer at 17:16:00 buying tea, coffee, soda, milkshake, water and frappucino is 17.6 %, 14.9 %, 17.7 %, 16.5%, 16.8 %, 16.5 % and for food 13.3 % cookie, 12.8 % muffin, 61.0 % nothing, 13.0 % pie.
On average the probability of a customer at 17:20:00 buying tea, coffee, soda, milkshake, water and frappucino is 18.0 %, 17.1 %, 15.3 %, 16.8%, 15.5 %, 17.4 % and for food 14.1 % cookie, 13.2 % muffin, 59.8 % nothing, 12.8 % pie.
On average the probability of a customer at 17:24:00 buying tea, coffee, soda, milkshake, water and frappucino is 15.8 %, 16.6 %, 15.5 %, 17.1%, 17.9 %, 17.2 % and for food 12.2 % cookie, 14.3 % muffin, 60.9 % nothing, 12.6 % pie.
On average the probability of a customer at 17:28:00 buying tea, coffee, soda, milkshake, water and frappucino is 16.9 %, 17.8 %, 16.7 %, 17.0%, 14.7 %, 16.9 % and for food 12.9 % cookie, 13.0 % muffin, 60.3 % nothing, 13.8 % pie.
On average the probability of a customer at 17:32:00 buying tea, coffee, soda, milkshake, water and frappucino is 17.0 %, 16.6 %, 18.0 %, 16.3%, 16.1 %, 16.1 % and for food 13.6 % cookie, 12.1 % muffin, 61.0 % nothing, 13.3 % pie.
On average the probability of a customer at 17:36:00 buying tea, coffee, soda, milkshake, water and frappucino is 17.0 %, 15.7 %, 16.8 %, 17.3%, 16.2 %, 17.0 % and for food 12.8 % cookie, 13.8 % muffin, 60.4 % nothing, 13.1 % pie.
On average the probability of a customer at 17:40:00 buying tea, coffee, soda, milkshake, water and frappucino is 16.5 %, 16.5 %, 15.8 %, 17.1%, 16.1 %, 18.0 % and for food 14.1 % cookie, 13.7 % muffin, 58.5 % nothing, 13.8 % pie.
On average the probability of a customer at 17:44:00 buying tea, coffee, soda, milkshake, water and frappucino is 16.8 %, 14.8 %, 17.4 %, 16.9%, 17.3 %, 16.8 % and for food 12.5 % cookie, 14.4 % muffin, 60.3 % nothing, 12.8 % pie.
On average the probability of a customer at 17:48:00 buying tea, coffee, soda, milkshake, water and frappucino is 16.1 %, 18.0 %, 16.3 %, 16.8%, 16.3 %, 16.5 % and for food 13.5 % cookie, 14.1 % muffin, 58.6 % nothing, 13.8 % pie.
On average the probability of a customer at 17:52:00 buying tea, coffee, soda, milkshake, water and frappucino is 17.5 %, 18.4 %, 16.3 %, 16.2%, 15.2 %, 16.4 % and for food 13.5 % cookie, 13.2 % muffin, 59.3 % nothing, 14.0 % pie.
On average the probability of a customer at 17:56:00 buying tea, coffee, soda, milkshake, water and frappucino is 15.6 %, 15.6 %, 17.6 %, 17.4%, 15.6 %, 18.2 % and for food 14.7 % cookie, 14.2 % muffin, 59.3 % nothing, 11.7 % pie.
